{
  "EDITOR_STATE": {
    "allProjectFiles": {
      "28521f67-b38e-4b53-9268-7284f43c75c3": {
        "id": "28521f67-b38e-4b53-9268-7284f43c75c3",
        "parent": null,
        "name": "adfa",
        "type": "DIRECTORY",
        "isDirectory": true,
        "children": [
          "db048a7e-338e-4292-becd-9ea857c4bd0b"
        ],
        "isRemovable": false,
        "filePath": "adfa"
      },
      "db048a7e-338e-4292-becd-9ea857c4bd0b": {
        "id": "db048a7e-338e-4292-becd-9ea857c4bd0b",
        "parent": "28521f67-b38e-4b53-9268-7284f43c75c3",
        "name": "lambda.js",
        "type": "LAMBDA_FILE",
        "isDirectory": false,
        "children": [],
        "isRemovable": true,
        "filePath": "adfa/lambda.js",
        "code": "let AWS = require('aws-sdk');\nconst cognito_idp = new AWS.CognitoIdentityServiceProvider();\nconst ddb = new AWS.DynamoDB.DocumentClient();\n\nexports.handler = function (event, context, callback) {\n\n    console.log(\"Received request with payload\", event);\n    let operation = event.Operation;\n    let id = event.ID;\n    let result = null;\n    switch (operation) {\n        case \"Add\":\n            result = event.LeftParameter + event.RightParameter;\n            break;\n        case \"Subtract\":\n            result = event.LeftParameter - event.RightParameter;\n            break;\n        case \"Multiply\":\n            result = event.LeftParameter * event.RightParameter;\n            break;\n        case \"Devide\":\n            result = event.LeftParameter / event.RightParameter;\n            break;\n        case \"Mod\":\n            result = event.LeftParameter % event.RightParameter;\n            break;\n        default:\n            result = \"Operation Not Permitted\";\n            break;\n    }\n    event.Result = result;\n\n    ddb.put({\n        TableName: 'Cal1',\n        Item: {\n            'ID': id, 'Result': result, 'Operation': operation\n        }\n\n    }).promise().then(function (data) {\n        //your logic goes here\n        console.log(data);\n\n    }).catch(function (err) {\n        //handle error\n        console.log(err);\n    });\n    cognito_idp.listUsers({\n        UserPoolId: \"us-east-1_uVXTQInep\",\n        Limit: \"10\"\n    }, function (error, data) {\n        if (error) {\n            // implement error handling logic here\n            throw error;\n        }\n        // your logic goes within this block\n    });\n\n    callback(null, { \"message\": \"Successfully executed\" });\n}",
        "triggers": [
          {
            "resourceName": "apigusEast1TestAPIoptions",
            "config": {}
          }
        ],
        "config": {
          "runtime": "nodejs8.10",
          "timeout": 60,
          "memory": 128
        },
        "testCases": {
          "b4ccf780-efc2-4061-b40a-0062e1fe1bad": {
            "id": "b4ccf780-efc2-4061-b40a-0062e1fe1bad",
            "name": "Unnamed event",
            "functionId": "db048a7e-338e-4292-becd-9ea857c4bd0b",
            "event": "{\n  \"Operation\": \"Add\",\n  \"LeftParameter\": 200,\n  \"RightParameter\": 400,\n   \"ID\": \"8\"\n}"
          }
        }
      }
    },
    "deletedFiles": [],
    "rootNode": "28521f67-b38e-4b53-9268-7284f43c75c3",
    "openFiles": [
      "db048a7e-338e-4292-becd-9ea857c4bd0b"
    ],
    "currentFileId": "db048a7e-338e-4292-becd-9ea857c4bd0b",
    "resources": {
      "apigusEast1TestAPIoptions": {
        "name": "apigusEast1TestAPIoptions",
        "type": "API_GATEWAY",
        "config": {
          "selectedRegion": "us-east-1",
          "apiMode": 1,
          "apiName": "TestAPI",
          "apiId": "0itznun7w3",
          "endpointType": "EDGE",
          "rootResourceId": "h2lelj6j7k",
          "existingResources": {
            "/MyLambda": "98nqbj",
            "/": "h2lelj6j7k",
            "/testtwospeciallambda": "q4szm3",
            "/testtwospecialkumutest": "wey3lk"
          },
          "resourceMode": 1,
          "resourcePath": "/",
          "resourceName": "",
          "resourceId": "h2lelj6j7k",
          "restMethod": "OPTIONS",
          "proxyIntegration": false,
          "enableCORS": false,
          "stageMode": 1,
          "stageName": "test",
          "stageDeploymentId": "i9212k"
        },
        "globallyEditable": false
      },
      "ddbCal": {
        "name": "ddbCal",
        "type": "DynamoDB",
        "config": {
          "mode": 0,
          "operation": "put",
          "table": {
            "arn": "",
            "name": "Cal",
            "partitionKey": "ID",
            "partitionKeyType": "S",
            "hasSortKey": true,
            "sortKey": "ID",
            "sortKeyType": "S",
            "mode": 0
          },
          "parameters": {
            "Key": {},
            "Item": {
              "ID": "@{id}",
              "Result": "@{result}",
              "Operation": "@{operation}}"
            },
            "ExpressionAttributeValues": {}
          },
          "validator": {
            "validatableFields": {},
            "validity": true
          },
          "valid": true
        },
        "globallyEditable": false
      },
      "cognitoTestCognito": {
        "name": "cognitoTestCognito",
        "type": "CognitoIdentityServiceProvider",
        "config": {
          "mode": 1,
          "name": "Test Cognito",
          "arn": "arn:aws:cognito-idp:us-east-1:318300609668:userpool/us-east-1_uVXTQInep",
          "userPool": {
            "Id": "us-east-1_uVXTQInep",
            "Name": "Test Cognito",
            "LambdaConfig": {},
            "Policies": {
              "PasswordPolicy": {
                "MinimumLength": 8,
                "RequireUppercase": true,
                "RequireLowercase": true,
                "RequireNumbers": true,
                "RequireSymbols": true
              }
            },
            "UsernameAttributes": [
              "email"
            ],
            "SmsVerificationMessage": "Your verification code is {####}. ",
            "EmailVerificationMessage": "Your verification code is {####}. ",
            "EmailVerificationSubject": "Your verification code",
            "VerificationMessageTemplate": {
              "SmsMessage": "Your verification code is {####}. ",
              "EmailMessage": "Your verification code is {####}. ",
              "EmailSubject": "Your verification code",
              "DefaultEmailOption": "CONFIRM_WITH_CODE"
            },
            "SmsAuthenticationMessage": "Your authentication code is {####}. ",
            "MfaConfiguration": "OPTIONAL",
            "DeviceConfiguration": {
              "ChallengeRequiredOnNewDevice": false,
              "DeviceOnlyRememberedOnUserPrompt": true
            },
            "EmailConfiguration": {},
            "SmsConfiguration": {
              "SnsCallerArn": "arn:aws:iam::318300609668:role/service-role/TestCognito-SMS-Role",
              "ExternalId": "a5aa9c3d-325f-4d4c-bd3e-06f1485e8375"
            },
            "UserPoolTags": {
              "status": "1"
            },
            "AdminCreateUserConfig": {
              "AllowAdminCreateUserOnly": false,
              "UnusedAccountValidityDays": 7,
              "InviteMessageTemplate": {
                "SMSMessage": "Your username is {username} and temporary password is {####}. ",
                "EmailMessage": "Your username is {username} and temporary password is {####}. ",
                "EmailSubject": "Your temporary password"
              }
            },
            "SchemaAttributes": [
              {
                "Name": "sub",
                "AttributeDataType": "String",
                "DeveloperOnlyAttribute": false,
                "Mutable": false,
                "Required": true,
                "StringAttributeConstraints": {
                  "MinLength": "1",
                  "MaxLength": "2048"
                }
              },
              {
                "Name": "name",
                "AttributeDataType": "String",
                "DeveloperOnlyAttribute": false,
                "Mutable": true,
                "Required": true,
                "StringAttributeConstraints": {
                  "MinLength": "0",
                  "MaxLength": "2048"
                }
              },
              {
                "Name": "given_name",
                "AttributeDataType": "String",
                "DeveloperOnlyAttribute": false,
                "Mutable": true,
                "Required": false,
                "StringAttributeConstraints": {
                  "MinLength": "0",
                  "MaxLength": "2048"
                }
              },
              {
                "Name": "family_name",
                "AttributeDataType": "String",
                "DeveloperOnlyAttribute": false,
                "Mutable": true,
                "Required": false,
                "StringAttributeConstraints": {
                  "MinLength": "0",
                  "MaxLength": "2048"
                }
              },
              {
                "Name": "middle_name",
                "AttributeDataType": "String",
                "DeveloperOnlyAttribute": false,
                "Mutable": true,
                "Required": false,
                "StringAttributeConstraints": {
                  "MinLength": "0",
                  "MaxLength": "2048"
                }
              },
              {
                "Name": "nickname",
                "AttributeDataType": "String",
                "DeveloperOnlyAttribute": false,
                "Mutable": true,
                "Required": false,
                "StringAttributeConstraints": {
                  "MinLength": "0",
                  "MaxLength": "2048"
                }
              },
              {
                "Name": "preferred_username",
                "AttributeDataType": "String",
                "DeveloperOnlyAttribute": false,
                "Mutable": true,
                "Required": false,
                "StringAttributeConstraints": {
                  "MinLength": "0",
                  "MaxLength": "2048"
                }
              },
              {
                "Name": "profile",
                "AttributeDataType": "String",
                "DeveloperOnlyAttribute": false,
                "Mutable": true,
                "Required": false,
                "StringAttributeConstraints": {
                  "MinLength": "0",
                  "MaxLength": "2048"
                }
              },
              {
                "Name": "picture",
                "AttributeDataType": "String",
                "DeveloperOnlyAttribute": false,
                "Mutable": true,
                "Required": false,
                "StringAttributeConstraints": {
                  "MinLength": "0",
                  "MaxLength": "2048"
                }
              },
              {
                "Name": "website",
                "AttributeDataType": "String",
                "DeveloperOnlyAttribute": false,
                "Mutable": true,
                "Required": false,
                "StringAttributeConstraints": {
                  "MinLength": "0",
                  "MaxLength": "2048"
                }
              },
              {
                "Name": "email",
                "AttributeDataType": "String",
                "DeveloperOnlyAttribute": false,
                "Mutable": true,
                "Required": true,
                "StringAttributeConstraints": {
                  "MinLength": "0",
                  "MaxLength": "2048"
                }
              },
              {
                "Name": "email_verified",
                "AttributeDataType": "Boolean",
                "DeveloperOnlyAttribute": false,
                "Mutable": true,
                "Required": false
              },
              {
                "Name": "gender",
                "AttributeDataType": "String",
                "DeveloperOnlyAttribute": false,
                "Mutable": true,
                "Required": false,
                "StringAttributeConstraints": {
                  "MinLength": "0",
                  "MaxLength": "2048"
                }
              },
              {
                "Name": "birthdate",
                "AttributeDataType": "String",
                "DeveloperOnlyAttribute": false,
                "Mutable": true,
                "Required": true,
                "StringAttributeConstraints": {
                  "MinLength": "10",
                  "MaxLength": "10"
                }
              },
              {
                "Name": "zoneinfo",
                "AttributeDataType": "String",
                "DeveloperOnlyAttribute": false,
                "Mutable": true,
                "Required": false,
                "StringAttributeConstraints": {
                  "MinLength": "0",
                  "MaxLength": "2048"
                }
              },
              {
                "Name": "locale",
                "AttributeDataType": "String",
                "DeveloperOnlyAttribute": false,
                "Mutable": true,
                "Required": false,
                "StringAttributeConstraints": {
                  "MinLength": "0",
                  "MaxLength": "2048"
                }
              },
              {
                "Name": "phone_number",
                "AttributeDataType": "String",
                "DeveloperOnlyAttribute": false,
                "Mutable": true,
                "Required": true,
                "StringAttributeConstraints": {
                  "MinLength": "0",
                  "MaxLength": "2048"
                }
              },
              {
                "Name": "phone_number_verified",
                "AttributeDataType": "Boolean",
                "DeveloperOnlyAttribute": false,
                "Mutable": true,
                "Required": false
              },
              {
                "Name": "address",
                "AttributeDataType": "String",
                "DeveloperOnlyAttribute": false,
                "Mutable": true,
                "Required": true,
                "StringAttributeConstraints": {
                  "MinLength": "0",
                  "MaxLength": "2048"
                }
              },
              {
                "Name": "updated_at",
                "AttributeDataType": "Number",
                "DeveloperOnlyAttribute": false,
                "Mutable": true,
                "Required": false,
                "NumberAttributeConstraints": {
                  "MinValue": "0"
                }
              }
            ]
          }
        },
        "globallyEditable": false
      }
    },
    "envVariables": [
      {
        "lambdaId": "all",
        "varKey": "SIGMA_AWS_ACC_ID",
        "varValue": null,
        "shouldPersist": false,
        "displayOnly": false,
        "editable": false
      }
    ],
    "packageJSON": {
      "dependencies": {}
    },
    "lambdaId": "db048a7e-338e-4292-becd-9ea857c4bd0b"
  },
  "PROJECT_META": {
    "projectName": "adfa",
    "projectDescription": "",
    "projectVersion": "1.0.0",
    "projectRegion": "us-east-1",
    "platform": "AWS",
    "platformRegions": {},
    "lastSave": 1544160022177
  },
  "VCS_STATE": {
    "provider": "BitBucket",
    "repo": {
      "name": "adfa",
      "url": "https://bitbucket.org/KumudikaR/adfa"
    }
  }
}